

Component hierarchy

ordbokSearch
        entrySearch
                entryLink
        dictEntries
                entryWrapper
                        dictEntry
                                lemmaGroup
                                        LemmaList
                                hakeparentesGroup
                                        pronunciationGroup
                                                bracketGroup …
                                        olderSourceGroup
                                                bracketGroup …
                                        writtenFormGroup
                                                bracketGroup …
                                        dialectGroup
                                                bracketGroup …
                                        etymologyGroup
                                                bracketGroup
                                                        bracketList
                                                        bracketListEdit
                                definitionList
                                        meaningGroup
                                                meaningList
                                        exampleGroup
                                        subentryGroup
                                        compoundGroup
